{
  "policy": {
    "name": "waf_policy_name",
    "description": "security policy for juiceshop",
    "template": {
      "name": "owasptop10_agility2020"
    },
    "enforcementMode": "blocking",
    "policy-builder": {
      "learnOnlyFromNonBotTraffic": false
    },
    "server-technologies": [
      {
        "serverTechnologyName": "MySQL"
      },
      {
        "serverTechnologyName": "Unix/Linux"
      }
    ]
  },
  "modifications": [
  ]
}